{
	"variables": [],
	"info": {
		"name": "morteza",
		"_postman_id": "095f600f-c0ef-cd1f-7f4f-8d02731c960e",
		"description": "",
		"schema": "https://schema.getpostman.com/json/collection/v2.0.0/collection.json"
	},
	"item": [
		{
			"name": "userService",
			"description": "",
			"item": [
				{
					"name": "index",
					"request": {
						"url": "{{url}}",
						"method": "GET",
						"header": [
							{
								"key": "authorization",
								"value": "{{authorization}}",
								"description": ""
							}
						],
						"body": {},
						"description": ""
					},
					"response": []
				},
				{
					"name": "captcha",
					"request": {
						"url": "{{url}}/captcha",
						"method": "GET",
						"header": [
							{
								"key": "authorization",
								"value": "{{authorization}}",
								"description": ""
							}
						],
						"body": {},
						"description": ""
					},
					"response": []
				},
				{
					"name": "login",
					"request": {
						"url": "{{url}}/login",
						"method": "POST",
						"header": [
							{
								"key": "Content-Type",
								"value": "application/json",
								"description": ""
							}
						],
						"body": {
							"mode": "raw",
							"raw": "{\n\t\"username\": \"admin\",\n\t\"password\": \"aaa\"\n}"
						},
						"description": ""
					},
					"response": []
				},
				{
					"name": "userList",
					"request": {
						"url": "{{url}}/userList",
						"method": "GET",
						"header": [
							{
								"key": "authorization",
								"value": "{{authorization}}",
								"description": ""
							}
						],
						"body": {},
						"description": ""
					},
					"response": []
				}
			]
		},
		{
			"name": "adminService",
			"description": "",
			"item": [
				{
					"name": "roles",
					"request": {
						"url": "{{adminUrl}}/roles",
						"method": "GET",
						"header": [],
						"body": {},
						"description": ""
					},
					"response": []
				},
				{
					"name": "addOrUpdateRole",
					"request": {
						"url": "{{adminUrl}}/addOrUpdateRole",
						"method": "POST",
						"header": [
							{
								"key": "Content-Type",
								"value": "application/json",
								"description": ""
							}
						],
						"body": {
							"mode": "raw",
							"raw": "{\n\t\"name\": \"Admin\",\n\t\"accessList\": [\n\t\t{\n\t\t\t\"method\": \"GET\",\n\t\t\t\"path\": \"/userList\"\n\t\t},\n\t\t{\n\t\t\t\"method\": \"GET\",\n\t\t\t\"path\": \"/\"\n\t\t},\n\t\t{\n\t\t\t\"method\": \"GET\",\n\t\t\t\"path\": \"/\"\n\t\t}\n\t]\n}"
						},
						"description": ""
					},
					"response": []
				},
				{
					"name": "setUserRole",
					"request": {
						"url": "{{adminUrl}}/setUserRole",
						"method": "POST",
						"header": [
							{
								"key": "Content-Type",
								"value": "application/json",
								"description": ""
							}
						],
						"body": {
							"mode": "raw",
							"raw": "{\n\t\"username\": \"admin\",\n\t\"roleId\": \"619a317569bac6a3098f5612\"\n}"
						},
						"description": ""
					},
					"response": []
				}
			]
		},
		{
			"name": "captchaService",
			"description": "",
			"item": [
				{
					"name": "getCaptcha",
					"request": {
						"url": "{{captchaUrl}}/captcha",
						"method": "GET",
						"header": [],
						"body": {},
						"description": ""
					},
					"response": []
				},
				{
					"name": "checkCaptcha",
					"request": {
						"url": "{{captchaUrl}}/checkCaptcha",
						"method": "POST",
						"header": [
							{
								"key": "Content-Type",
								"value": "application/json",
								"description": ""
							}
						],
						"body": {
							"mode": "raw",
							"raw": "{\n\t\"text\": \"MN4o\"\n}"
						},
						"description": ""
					},
					"response": []
				}
			]
		}
	]
}